{
    "backgroundfolder": "/media/riccardo/data1/datasets/dlo_segmentation/data_chromakey/bg",
    "outputfolder": "/media/riccardo/data1/datasets/dlo_segmentation/data_chromakey/ready_for_training/horse",
    "lastindex": -1,
    "augment_background": true,
    "augment_foreground": true,
    "dataset_fine_tuning": false,
    "use_rgb": true,
    "output_shape": [
        -1,
        -1
    ],
    "debug": false,
    "include_original": true,
    "bgs_for_img": 8,
    "info": {
        "horse": {
            "inputfolder": "/media/riccardo/data1/datasets/dlo_segmentation/data_chromakey/ck_raw/horse",
            "ck_low_lv": [
                37,
                0,
                82
            ],
            "ck_high_lv": [
                97,
                255,
                255
            ]
        }
    }
}