{
    "backgroundfolder": "/media/riccardo/data1/datasets/dlo_segmentation/data_chromakey/bg",
    "outputfolder": "/media/riccardo/data1/datasets/dlo_segmentation/data_chromakey/ready_for_training/salient",
    "lastindex": -1,
    "augment_background": true,
    "augment_foreground": true,
    "dataset_fine_tuning": false,
    "use_rgb": true,
    "output_shape": [
        -1,
        -1
    ],
    "debug": false,
    "include_original": true,
    "bgs_for_img": 0,
    "info": {
        "scissors": {
            "inputfolder": "/media/riccardo/data1/datasets/dlo_segmentation/data_chromakey/ck_raw/scissors",
            "ck_low_lv": [
                27,
                97,
                90
            ],
            "ck_high_lv": [
                107,
                255,
                255
            ]
        },
        "horse1": {
            "inputfolder": "/media/riccardo/data1/datasets/dlo_segmentation/data_chromakey/ck_raw/horse",
            "ck_low_lv": [
                37,
                0,
                82
            ],
            "ck_high_lv": [
                97,
                255,
                255
            ]
        },
        "ywb": {
            "inputfolder": "/media/riccardo/data1/datasets/dlo_segmentation/data_chromakey/ck_raw/ywb",
            "ck_low_lv": [
                40,
                60,
                0
            ],
            "ck_high_lv": [
                90,
                255,
                255
            ]
        },
        "apple": {
            "inputfolder": "/media/riccardo/data1/datasets/dlo_segmentation/data_chromakey/ck_raw/CK_OBJECTS/apple",
            "ck_low_lv": [
                39,
                37,
                62
            ],
            "ck_high_lv": [
                84,
                157,
                183
            ]
        },
        "hand": {
            "inputfolder": "/media/riccardo/data1/datasets/dlo_segmentation/data_chromakey/ck_raw/CK_OBJECTS/hand",
            "ck_low_lv": [
                37,
                49,
                49
            ],
            "ck_high_lv": [
                76,
                172,
                171
            ]
        },
        "horse2": {
            "inputfolder": "/media/riccardo/data1/datasets/dlo_segmentation/data_chromakey/ck_raw/CK_OBJECTS/horse",
            "ck_low_lv": [
                47,
                69,
                103
            ],
            "ck_high_lv": [
                94,
                152,
                178
            ]
        },
        "torodlr": {
            "inputfolder": "/media/riccardo/data1/datasets/dlo_segmentation/data_chromakey/ck_raw/CK_OBJECTS/torodlr",
            "ck_low_lv": [
                57,
                93,
                76
            ],
            "ck_high_lv": [
                80,
                198,
                168
            ]
        }
    }
}