{
    "backgroundfolder": "/media/riccardo/data1/datasets/dlo_segmentation/data_chromakey/bg",
    "outputfolder": "/media/riccardo/data1/datasets/dlo_segmentation/data_chromakey/ready_for_training/wires_cross",
    "lastindex": -1,
    "augment_background": true,
    "augment_foreground": true,
    "dataset_fine_tuning": false,
    "use_rgb": true,
    "output_shape": [
        -1,
        -1
    ],
    "debug": false,
    "include_original": true,
    "bgs_for_img": 0,
    "info": {
        "b": {
            "inputfolder": "/media/riccardo/data1/datasets/dlo_segmentation/data_chromakey/ck_raw/b_cross",
            "ck_low_lv": [
                0,
                40,
                0
            ],
            "ck_high_lv": [
                90,
                255,
                255
            ]
        },
        "rb": {
            "inputfolder": "/media/riccardo/data1/datasets/dlo_segmentation/data_chromakey/ck_raw/rb",
            "ck_low_lv": [
                10,
                0,
                0
            ],
            "ck_high_lv": [
                99,
                255,
                255
            ]
        },
        "bk": {
            "inputfolder": "/media/riccardo/data1/datasets/dlo_segmentation/data_chromakey/ck_raw/bk",
            "ck_low_lv": [
                0,
                110,
                100
            ],
            "ck_high_lv": [
                90,
                255,
                255
            ]
        },
        "wk": {
            "inputfolder": "/media/riccardo/data1/datasets/dlo_segmentation/data_chromakey/ck_raw/wk",
            "ck_low_lv": [
                50,
                60,
                70
            ],
            "ck_high_lv": [
                179,
                255,
                255
            ]
        },
        "yb": {
            "inputfolder": "/media/riccardo/data1/datasets/dlo_segmentation/data_chromakey/ck_raw/yb",
            "ck_low_lv": [
                50,
                0,
                0
            ],
            "ck_high_lv": [
                90,
                255,
                255
            ]
        },
        "yw": {
            "inputfolder": "/media/riccardo/data1/datasets/dlo_segmentation/data_chromakey/ck_raw/yw",
            "ck_low_lv": [
                30,
                40,
                0
            ],
            "ck_high_lv": [
                90,
                255,
                255
            ]
        },
        "ywb": {
            "inputfolder": "/media/riccardo/data1/datasets/dlo_segmentation/data_chromakey/ck_raw/ywb",
            "ck_low_lv": [
                40,
                60,
                0
            ],
            "ck_high_lv": [
                90,
                255,
                255
            ]
        }
    }
}